 Parameter   ! first 3 elements per line are significant (if used as input)
        11      0.0000       -1.0000    
        12      0.0000       -1.0000    
        21      0.0000       -1.0000    
       111      0.0000       -1.0000    
       112      0.0000       -1.0000    
       121     0.58394E-02    0.0000       0.58394E-02   0.69311E-03
       211     -14.343        0.0000       -14.343       0.70049E-01
       212     -17.231        0.0000       -17.231       0.67631E-01
       221    -0.57656E-02    0.0000      -0.57656E-02   0.22362E-02
       311     -33.774        0.0000       -33.774       0.92781E-01
       312     -8.6326        0.0000       -8.6326       0.10605    
       321    -0.54387E-02    0.0000      -0.54387E-02   0.27440E-02
