1296 1308
Parameter   ! first 3 elements per line are significant (if used as input)  
 11      0.0000       -1.0000    
111     -3.9983        0.0000       -3.9983       0.89872E-02
311      0.0000       -1.0000
 12      0.0000       -1.0000    
112      0.0000        0.0000       0.93617       0.89048E-02
212      0.0000        0.0000      -0.66298       0.86031E-02
312      0.0000       -1.0000
