#Module_ID | #ASIC_ID | #ADC_To_MIP | #LowGain_To_HighGain_Transition | #LowGain_To_HighGain_Conversion | #TOT_To_LowGain_Transition | #TOT_To_LowGain_Conversion
53  0   0  0.0250000  1500  9  1105  5.15464  192  0
53  0   2  0.0250000  1500  9  1105  5.15464  192  0
53  0   4  0.0250000  1500  9  1105  5.15464  192  0
53  0   6  0.0250000  1500  9  1105  5.15464  192  0
53  0   8  0.0250000  1500  9  1105  5.15464  192  0
53  0  10  0.0250000  1500  9  1105  5.15464  192  0
53  0  12  0.0250000  1500  9  1105  5.15464  192  0
53  0  14  0.0250000  1500  9  1105  5.15464  192  0
53  0  16  0.0250000  1500  9  1105  5.15464  192  0
53  0  18  0.0250000  1500  9  1105  5.15464  192  0
53  0  20  0.0250000  1500  9  1105  5.15464  192  0
53  0  22  0.0250000  1500  9  1105  5.15464  192  0
53  0  24  0.0250000  1500  9  1105  5.15464  192  0
53  0  26  0.0250000  1500  9  1105  5.15464  192  0
53  0  28  0.0250000  1500  9  1105  5.15464  192  0
53  0  30  0.0250000  1500  9  1105  5.15464  192  0
53  0  32  0.0250000  1500  9  1105  5.15464  192  0
53  0  34  0.0250000  1500  9  1105  5.15464  192  0
53  0  36  0.0250000  1500  9  1105  5.15464  192  0
53  0  38  0.0250000  1500  9  1105  5.15464  192  0
53  0  40  0.0250000  1500  9  1105  5.15464  192  0
53  0  42  0.0250000  1500  9  1105  5.15464  192  0
53  0  44  0.0250000  1500  9  1105  5.15464  192  0
53  0  46  0.0250000  1500  9  1105  5.15464  192  0
53  0  48  0.0250000  1500  9  1105  5.15464  192  0
53  0  50  0.0250000  1500  9  1105  5.15464  192  0
53  0  52  0.0250000  1500  9  1105  5.15464  192  0
53  0  54  0.0250000  1500  9  1105  5.15464  192  0
53  0  56  0.0250000  1500  9  1105  5.15464  192  0
53  0  58  0.0250000  1500  9  1105  5.15464  192  0
53  0  60  0.0250000  1500  9  1105  5.15464  192  0
53  0  62  0.0250000  1500  9  1105  5.15464  192  0
53  0  64  0.0250000  1500  9  1105  5.15464  192  0
53  1   0  0.0250000  1500  9  1105  5.15464  192  0
53  1   2  0.0250000  1500  9  1105  5.15464  192  0
53  1   4  0.0250000  1500  9  1105  5.15464  192  0
53  1   6  0.0250000  1500  9  1105  5.15464  192  0
53  1   8  0.0250000  1500  9  1105  5.15464  192  0
53  1  10  0.0250000  1500  9  1105  5.15464  192  0
53  1  12  0.0250000  1500  9  1105  5.15464  192  0
53  1  14  0.0250000  1500  9  1105  5.15464  192  0
53  1  16  0.0250000  1500  9  1105  5.15464  192  0
53  1  18  0.0250000  1500  9  1105  5.15464  192  0
53  1  20  0.0250000  1500  9  1105  5.15464  192  0
53  1  22  0.0250000  1500  9  1105  5.15464  192  0
53  1  24  0.0250000  1500  9  1105  5.15464  192  0
53  1  26  0.0250000  1500  9  1105  5.15464  192  0
53  1  28  0.0250000  1500  9  1105  5.15464  192  0
53  1  30  0.0250000  1500  9  1105  5.15464  192  0
53  1  32  0.0250000  1500  9  1105  5.15464  192  0
53  1  34  0.0250000  1500  9  1105  5.15464  192  0
53  1  36  0.0250000  1500  9  1105  5.15464  192  0
53  1  38  0.0250000  1500  9  1105  5.15464  192  0
53  1  40  0.0250000  1500  9  1105  5.15464  192  0
53  1  42  0.0250000  1500  9  1105  5.15464  192  0
53  1  44  0.0250000  1500  9  1105  5.15464  192  0
53  1  46  0.0250000  1500  9  1105  5.15464  192  0
53  1  48  0.0250000  1500  9  1105  5.15464  192  0
53  1  50  0.0250000  1500  9  1105  5.15464  192  0
53  1  52  0.0250000  1500  9  1105  5.15464  192  0
53  1  54  0.0250000  1500  9  1105  5.15464  192  0
53  1  56  0.0250000  1500  9  1105  5.15464  192  0
53  1  58  0.0250000  1500  9  1105  5.15464  192  0
53  1  60  0.0250000  1500  9  1105  5.15464  192  0
53  1  62  0.0250000  1500  9  1105  5.15464  192  0
53  1  64  0.0250000  1500  9  1105  5.15464  192  0
53  2   0  0.0250000  1500  9  1105  5.15464  192  0
53  2   2  0.0250000  1500  9  1105  5.15464  192  0
53  2   4  0.0250000  1500  9  1105  5.15464  192  0
53  2   6  0.0250000  1500  9  1105  5.15464  192  0
53  2   8  0.0250000  1500  9  1105  5.15464  192  0
53  2  10  0.0250000  1500  9  1105  5.15464  192  0
53  2  12  0.0250000  1500  9  1105  5.15464  192  0
53  2  14  0.0250000  1500  9  1105  5.15464  192  0
53  2  16  0.0250000  1500  9  1105  5.15464  192  0
53  2  18  0.0250000  1500  9  1105  5.15464  192  0
53  2  20  0.0250000  1500  9  1105  5.15464  192  0
53  2  22  0.0250000  1500  9  1105  5.15464  192  0
53  2  24  0.0250000  1500  9  1105  5.15464  192  0
53  2  26  0.0250000  1500  9  1105  5.15464  192  0
53  2  28  0.0250000  1500  9  1105  5.15464  192  0
53  2  30  0.0250000  1500  9  1105  5.15464  192  0
53  2  32  0.0250000  1500  9  1105  5.15464  192  0
53  2  34  0.0250000  1500  9  1105  5.15464  192  0
53  2  36  0.0250000  1500  9  1105  5.15464  192  0
53  2  38  0.0250000  1500  9  1105  5.15464  192  0
53  2  40  0.0250000  1500  9  1105  5.15464  192  0
53  2  42  0.0250000  1500  9  1105  5.15464  192  0
53  2  44  0.0250000  1500  9  1105  5.15464  192  0
53  2  46  0.0250000  1500  9  1105  5.15464  192  0
53  2  48  0.0250000  1500  9  1105  5.15464  192  0
53  2  50  0.0250000  1500  9  1105  5.15464  192  0
53  2  52  0.0250000  1500  9  1105  5.15464  192  0
53  2  54  0.0250000  1500  9  1105  5.15464  192  0
53  2  56  0.0250000  1500  9  1105  5.15464  192  0
53  2  58  0.0250000  1500  9  1105  5.15464  192  0
53  2  60  0.0250000  1500  9  1105  5.15464  192  0
53  2  62  0.0250000  1500  9  1105  5.15464  192  0
53  2  64  0.0250000  1500  9  1105  5.15464  192  0
53  3   0  0.0250000  1500  9  1105  5.15464  192  0
53  3   2  0.0250000  1500  9  1105  5.15464  192  0
53  3   4  0.0250000  1500  9  1105  5.15464  192  0
53  3   6  0.0250000  1500  9  1105  5.15464  192  0
53  3   8  0.0250000  1500  9  1105  5.15464  192  0
53  3  10  0.0250000  1500  9  1105  5.15464  192  0
53  3  12  0.0250000  1500  9  1105  5.15464  192  0
53  3  14  0.0250000  1500  9  1105  5.15464  192  0
53  3  16  0.0250000  1500  9  1105  5.15464  192  0
53  3  18  0.0250000  1500  9  1105  5.15464  192  0
53  3  20  0.0250000  1500  9  1105  5.15464  192  0
53  3  22  0.0250000  1500  9  1105  5.15464  192  0
53  3  24  0.0250000  1500  9  1105  5.15464  192  0
53  3  26  0.0250000  1500  9  1105  5.15464  192  0
53  3  28  0.0250000  1500  9  1105  5.15464  192  0
53  3  30  0.0250000  1500  9  1105  5.15464  192  0
53  3  32  0.0250000  1500  9  1105  5.15464  192  0
53  3  34  0.0250000  1500  9  1105  5.15464  192  0
53  3  36  0.0250000  1500  9  1105  5.15464  192  0
53  3  38  0.0250000  1500  9  1105  5.15464  192  0
53  3  40  0.0250000  1500  9  1105  5.15464  192  0
53  3  42  0.0250000  1500  9  1105  5.15464  192  0
53  3  44  0.0250000  1500  9  1105  5.15464  192  0
53  3  46  0.0250000  1500  9  1105  5.15464  192  0
53  3  48  0.0250000  1500  9  1105  5.15464  192  0
53  3  50  0.0250000  1500  9  1105  5.15464  192  0
53  3  52  0.0250000  1500  9  1105  5.15464  192  0
53  3  54  0.0250000  1500  9  1105  5.15464  192  0
53  3  56  0.0250000  1500  9  1105  5.15464  192  0
53  3  58  0.0250000  1500  9  1105  5.15464  192  0
53  3  60  0.0250000  1500  9  1105  5.15464  192  0
53  3  62  0.0250000  1500  9  1105  5.15464  192  0
53  3  64  0.0250000  1500  9  1105  5.15464  192  0
54  0   0  0.0251041  1500  9  1105  5.15464  192  0
54  0   2  0.0255027  1500  9  1105  5.15464  192  0
54  0   4  0.0256512  1500  9  1105  5.15464  192  0
54  0   6  0.0256512  1500  9  1105  5.15464  192  0
54  0   8  0.0255169  1500  9  1105  5.15464  192  0
54  0  10  0.0256512  1500  9  1105  5.15464  192  0
54  0  12  0.025475   1500  9  1105  5.15464  192  0
54  0  14  0.0264269  1500  9  1105  5.15464  192  0
54  0  16  0.0256512  1500  9  1105  5.15464  192  0
54  0  18  0.0256216  1500  9  1105  5.15464  192  0
54  0  20  0.0254591  1500  9  1105  5.15464  192  0
54  0  22  0.0256252  1500  9  1105  5.15464  192  0
54  0  24  0.0265549  1500  9  1105  5.15464  192  0
54  0  26  0.0251083  1500  9  1105  5.15464  192  0
54  0  28  0.0263886  1500  9  1105  5.15464  192  0
54  0  30  0.0256512  1500  9  1105  5.15464  192  0
54  0  32  0.0256512  1500  9  1105  5.15464  192  0
54  0  34  0.0256512  1500  9  1105  5.15464  192  0
54  0  36  0.0256512  1500  9  1105  5.15464  192  0
54  0  38  0.0256512  1500  9  1105  5.15464  192  0
54  0  40  0.0263299  1500  9  1105  5.15464  192  0
54  0  42  0.0256512  1500  9  1105  5.15464  192  0
54  0  44  0.0256512  1500  9  1105  5.15464  192  0
54  0  46  0.0256512  1500  9  1105  5.15464  192  0
54  0  48  0.0256512  1500  9  1105  5.15464  192  0
54  0  50  0.0256512  1500  9  1105  5.15464  192  0
54  0  52  0.0256512  1500  9  1105  5.15464  192  0
54  0  54  0.0256512  1500  9  1105  5.15464  192  0
54  0  56  0.0256512  1500  9  1105  5.15464  192  0
54  0  58  0.0256512  1500  9  1105  5.15464  192  0
54  0  60  0.0256512  1500  9  1105  5.15464  192  0
54  0  62  0.0256512  1500  9  1105  5.15464  192  0
54  0  64  0.0256512  1500  9  1105  5.15464  192  0
54  1   0  0.0245374  1500  9  1105  5.15464  192  0
54  1   2  0.0256512  1500  9  1105  5.15464  192  0
54  1   4  0.0258484  1500  9  1105  5.15464  192  0
54  1   6  0.0248556  1500  9  1105  5.15464  192  0
54  1   8  0.0244152  1500  9  1105  5.15464  192  0
54  1  10  0.0247621  1500  9  1105  5.15464  192  0
54  1  12  0.0253619  1500  9  1105  5.15464  192  0
54  1  14  0.0249305  1500  9  1105  5.15464  192  0
54  1  16  0.0256512  1500  9  1105  5.15464  192  0
54  1  18  0.0259477  1500  9  1105  5.15464  192  0
54  1  20  0.0262433  1500  9  1105  5.15464  192  0
54  1  22  0.0233537  1500  9  1105  5.15464  192  0
54  1  24  0.0241191  1500  9  1105  5.15464  192  0
54  1  26  0.0256512  1500  9  1105  5.15464  192  0
54  1  28  0.0242328  1500  9  1105  5.15464  192  0
54  1  30  0.0248371  1500  9  1105  5.15464  192  0
54  1  32  0.0243302  1500  9  1105  5.15464  192  0
54  1  34  0.0256512  1500  9  1105  5.15464  192  0
54  1  36  0.0252297  1500  9  1105  5.15464  192  0
54  1  38  0.0249309  1500  9  1105  5.15464  192  0
54  1  40  0.0248411  1500  9  1105  5.15464  192  0
54  1  42  0.0261527  1500  9  1105  5.15464  192  0
54  1  44  0.0246508  1500  9  1105  5.15464  192  0
54  1  46  0.0249334  1500  9  1105  5.15464  192  0
54  1  48  0.0256393  1500  9  1105  5.15464  192  0
54  1  50  0.0252408  1500  9  1105  5.15464  192  0
54  1  52  0.0256782  1500  9  1105  5.15464  192  0
54  1  54  0.0255793  1500  9  1105  5.15464  192  0
54  1  56  0.0254538  1500  9  1105  5.15464  192  0
54  1  58  0.0252845  1500  9  1105  5.15464  192  0
54  1  60  0.0256512  1500  9  1105  5.15464  192  0
54  1  62  0.024465   1500  9  1105  5.15464  192  0
54  1  64  0.0256512  1500  9  1105  5.15464  192  0
54  2   0  0.0256512  1500  9  1105  5.15464  192  0
54  2   2  0.0269011  1500  9  1105  5.15464  192  0
54  2   4  0.025756   1500  9  1105  5.15464  192  0
54  2   6  0.0266032  1500  9  1105  5.15464  192  0
54  2   8  0.0262595  1500  9  1105  5.15464  192  0
54  2  10  0.0256512  1500  9  1105  5.15464  192  0
54  2  12  0.0270348  1500  9  1105  5.15464  192  0
54  2  14  0.0256512  1500  9  1105  5.15464  192  0
54  2  16  0.0255295  1500  9  1105  5.15464  192  0
54  2  18  0.0256512  1500  9  1105  5.15464  192  0
54  2  20  0.0256512  1500  9  1105  5.15464  192  0
54  2  22  0.0256512  1500  9  1105  5.15464  192  0
54  2  24  0.0256512  1500  9  1105  5.15464  192  0
54  2  26  0.0256512  1500  9  1105  5.15464  192  0
54  2  28  0.0264308  1500  9  1105  5.15464  192  0
54  2  30  0.0265444  1500  9  1105  5.15464  192  0
54  2  32  0.026628   1500  9  1105  5.15464  192  0
54  2  34  0.0265277  1500  9  1105  5.15464  192  0
54  2  36  0.026306   1500  9  1105  5.15464  192  0
54  2  38  0.0256512  1500  9  1105  5.15464  192  0
54  2  40  0.0267777  1500  9  1105  5.15464  192  0
54  2  42  0.0256512  1500  9  1105  5.15464  192  0
54  2  44  0.0261001  1500  9  1105  5.15464  192  0
54  2  46  0.0258108  1500  9  1105  5.15464  192  0
54  2  48  0.027384   1500  9  1105  5.15464  192  0
54  2  50  0.0270816  1500  9  1105  5.15464  192  0
54  2  52  0.0280665  1500  9  1105  5.15464  192  0
54  2  54  0.0256512  1500  9  1105  5.15464  192  0
54  2  56  0.0260286  1500  9  1105  5.15464  192  0
54  2  58  0.026368   1500  9  1105  5.15464  192  0
54  2  60  0.0261116  1500  9  1105  5.15464  192  0
54  2  62  0.0260183  1500  9  1105  5.15464  192  0
54  2  64  0.0256512  1500  9  1105  5.15464  192  0
54  3   0  0.025563   1500  9  1105  5.15464  192  0
54  3   2  0.0250223  1500  9  1105  5.15464  192  0
54  3   4  0.0255586  1500  9  1105  5.15464  192  0
54  3   6  0.025607   1500  9  1105  5.15464  192  0
54  3   8  0.0248738  1500  9  1105  5.15464  192  0
54  3  10  0.023735   1500  9  1105  5.15464  192  0
54  3  12  0.0256512  1500  9  1105  5.15464  192  0
54  3  14  0.025573   1500  9  1105  5.15464  192  0
54  3  16  0.0262429  1500  9  1105  5.15464  192  0
54  3  18  0.0255103  1500  9  1105  5.15464  192  0
54  3  20  0.0256512  1500  9  1105  5.15464  192  0
54  3  22  0.0256512  1500  9  1105  5.15464  192  0
54  3  24  0.0256512  1500  9  1105  5.15464  192  0
54  3  26  0.0257658  1500  9  1105  5.15464  192  0
54  3  28  0.0256512  1500  9  1105  5.15464  192  0
54  3  30  0.0262629  1500  9  1105  5.15464  192  0
54  3  32  0.0266111  1500  9  1105  5.15464  192  0
54  3  34  0.0263539  1500  9  1105  5.15464  192  0
54  3  36  0.0259603  1500  9  1105  5.15464  192  0
54  3  38  0.0263223  1500  9  1105  5.15464  192  0
54  3  40  0.0256512  1500  9  1105  5.15464  192  0
54  3  42  0.0256512  1500  9  1105  5.15464  192  0
54  3  44  0.0261504  1500  9  1105  5.15464  192  0
54  3  46  0.0272933  1500  9  1105  5.15464  192  0
54  3  48  0.0252103  1500  9  1105  5.15464  192  0
54  3  50  0.0266146  1500  9  1105  5.15464  192  0
54  3  52  0.0259889  1500  9  1105  5.15464  192  0
54  3  54  0.0255682  1500  9  1105  5.15464  192  0
54  3  56  0.0261321  1500  9  1105  5.15464  192  0
54  3  58  0.0256512  1500  9  1105  5.15464  192  0
54  3  60  0.0224479  1500  9  1105  5.15464  192  0
54  3  62  0.0258559  1500  9  1105  5.15464  192  0
54  3  64  0.0256512  1500  9  1105  5.15464  192  0
55  0   0  0.0233581  1500  9  1105  5.15464  192  0
55  0   2  0.0225591  1500  9  1105  5.15464  192  0
55  0   4  0.0223692  1500  9  1105  5.15464  192  0
55  0   6  0.0227863  1500  9  1105  5.15464  192  0
55  0   8  0.022451   1500  9  1105  5.15464  192  0
55  0  10  0.0260428  1500  9  1105  5.15464  192  0
55  0  12  0.0227972  1500  9  1105  5.15464  192  0
55  0  14  0.0228871  1500  9  1105  5.15464  192  0
55  0  16  0.022923   1500  9  1105  5.15464  192  0
55  0  18  0.0227264  1500  9  1105  5.15464  192  0
55  0  20  0.0228414  1500  9  1105  5.15464  192  0
55  0  22  0.0229504  1500  9  1105  5.15464  192  0
55  0  24  0.0227053  1500  9  1105  5.15464  192  0
55  0  26  0.0228099  1500  9  1105  5.15464  192  0
55  0  28  0.022897   1500  9  1105  5.15464  192  0
55  0  30  0.0220293  1500  9  1105  5.15464  192  0
55  0  32  0.0220293  1500  9  1105  5.15464  192  0
55  0  34  0.0231525  1500  9  1105  5.15464  192  0
55  0  36  0.0220293  1500  9  1105  5.15464  192  0
55  0  38  0.0231398  1500  9  1105  5.15464  192  0
55  0  40  0.0236942  1500  9  1105  5.15464  192  0
55  0  42  0.0230115  1500  9  1105  5.15464  192  0
55  0  44  0.0220293  1500  9  1105  5.15464  192  0
55  0  46  0.0219442  1500  9  1105  5.15464  192  0
55  0  48  0.0220293  1500  9  1105  5.15464  192  0
55  0  50  0.0220293  1500  9  1105  5.15464  192  0
55  0  52  0.0225992  1500  9  1105  5.15464  192  0
55  0  54  0.0235159  1500  9  1105  5.15464  192  0
55  0  56  0.0220293  1500  9  1105  5.15464  192  0
55  0  58  0.0228593  1500  9  1105  5.15464  192  0
55  0  60  0.0227062  1500  9  1105  5.15464  192  0
55  0  62  0.0234381  1500  9  1105  5.15464  192  0
55  0  64  0.0220293  1500  9  1105  5.15464  192  0
55  1   0  0.0219651  1500  9  1105  5.15464  192  0
55  1   2  0.0223449  1500  9  1105  5.15464  192  0
55  1   4  0.0225235  1500  9  1105  5.15464  192  0
55  1   6  0.0221514  1500  9  1105  5.15464  192  0
55  1   8  0.0203985  1500  9  1105  5.15464  192  0
55  1  10  0.0224083  1500  9  1105  5.15464  192  0
55  1  12  0.0225951  1500  9  1105  5.15464  192  0
55  1  14  0.0197507  1500  9  1105  5.15464  192  0
55  1  16  0.0196438  1500  9  1105  5.15464  192  0
55  1  18  0.0198008  1500  9  1105  5.15464  192  0
55  1  20  0.0214391  1500  9  1105  5.15464  192  0
55  1  22  0.0219575  1500  9  1105  5.15464  192  0
55  1  24  0.0213058  1500  9  1105  5.15464  192  0
55  1  26  0.0220293  1500  9  1105  5.15464  192  0
55  1  28  0.0213935  1500  9  1105  5.15464  192  0
55  1  30  0.0223245  1500  9  1105  5.15464  192  0
55  1  32  0.0212891  1500  9  1105  5.15464  192  0
55  1  34  0.0220293  1500  9  1105  5.15464  192  0
55  1  36  0.0216483  1500  9  1105  5.15464  192  0
55  1  38  0.0232995  1500  9  1105  5.15464  192  0
55  1  40  0.0219619  1500  9  1105  5.15464  192  0
55  1  42  0.022376   1500  9  1105  5.15464  192  0
55  1  44  0.0215391  1500  9  1105  5.15464  192  0
55  1  46  0.0216215  1500  9  1105  5.15464  192  0
55  1  48  0.020464   1500  9  1105  5.15464  192  0
55  1  50  0.0202752  1500  9  1105  5.15464  192  0
55  1  52  0.0218451  1500  9  1105  5.15464  192  0
55  1  54  0.0218772  1500  9  1105  5.15464  192  0
55  1  56  0.0219842  1500  9  1105  5.15464  192  0
55  1  58  0.0207287  1500  9  1105  5.15464  192  0
55  1  60  0.0232911  1500  9  1105  5.15464  192  0
55  1  62  0.0217762  1500  9  1105  5.15464  192  0
55  1  64  0.0220293  1500  9  1105  5.15464  192  0
55  2   0  0.0228763  1500  9  1162  5.15464  108  1
55  2   2  0.0222502  1500  9  1162  5.15464  108  1
55  2   4  0.0224962  1500  9  1162  5.15464  108  1
55  2   6  0.0209022  1500  9  1162  5.15464  108  1
55  2   8  0.0212242  1500  9  1162  5.15464  108  1
55  2  10  0.0209298  1500  9  1162  5.15464  108  1
55  2  12  0.0220293  1500  9  1162  5.15464  108  0
55  2  14  0.0205934  1500  9  1162  5.15464  108  1
55  2  16  0.0220293  1500  9  1162  5.15464  108  0
55  2  18  0.0221956  1500  9  1162  5.15464  108  1
55  2  20  0.0215453  1500  9  1162  5.15464  108  1
55  2  22  0.0217346  1500  9  1162  5.15464  108  1
55  2  24  0.0222846  1500  9  1162  5.15464  108  1
55  2  26  0.0223009  1500  9  1162  5.15464  108  1
55  2  28  0.0208551  1500  9  1162  5.15464  108  1
55  2  30  0.0218728  1500  9  1162  5.15464  108  1
55  2  32  0.0220964  1500  9  1162  5.15464  108  1
55  2  34  0.0222107  1500  9  1162  5.15464  108  1
55  2  36  0.0217533  1500  9  1162  5.15464  108  1
55  2  38  0.0221391  1500  9  1162  5.15464  108  1
55  2  40  0.0213858  1500  9  1162  5.15464  108  1
55  2  42  0.0218073  1500  9  1162  5.15464  108  1
55  2  44  0.0222707  1500  9  1162  5.15464  108  1
55  2  46  0.0209072  1500  9  1162  5.15464  108  1
55  2  48  0.020793   1500  9  1162  5.15464  108  1
55  2  50  0.0207514  1500  9  1162  5.15464  108  1
55  2  52  0.0220293  1500  9  1162  5.15464  108  0
55  2  54  0.022552   1500  9  1162  5.15464  108  1
55  2  56  0.0212556  1500  9  1162  5.15464  108  1
55  2  58  0.0223343  1500  9  1162  5.15464  108  1
55  2  60  0.0220293  1500  9  1162  5.15464  108  0
55  2  62  0.0220293  1500  9  1162  5.15464  108  0
55  2  64  0.0220293  1500  9  1162  5.15464  108  0
55  3   0  0.0220293  1500  9  1105  5.15464  192  0
55  3   2  0.0220293  1500  9  1105  5.15464  192  0
55  3   4  0.0220293  1500  9  1105  5.15464  192  0
55  3   6  0.0220293  1500  9  1105  5.15464  192  0
55  3   8  0.0220293  1500  9  1105  5.15464  192  0
55  3  10  0.0220293  1500  9  1105  5.15464  192  0
55  3  12  0.0220293  1500  9  1105  5.15464  192  0
55  3  14  0.0220293  1500  9  1105  5.15464  192  0
55  3  16  0.0220293  1500  9  1105  5.15464  192  0
55  3  18  0.0237323  1500  9  1105  5.15464  192  0
55  3  20  0.0220293  1500  9  1105  5.15464  192  0
55  3  22  0.0220293  1500  9  1105  5.15464  192  0
55  3  24  0.0220293  1500  9  1105  5.15464  192  0
55  3  26  0.0220293  1500  9  1105  5.15464  192  0
55  3  28  0.0220293  1500  9  1105  5.15464  192  0
55  3  30  0.0231305  1500  9  1105  5.15464  192  0
55  3  32  0.0216903  1500  9  1105  5.15464  192  0
55  3  34  0.0221275  1500  9  1105  5.15464  192  0
55  3  36  0.0223407  1500  9  1105  5.15464  192  0
55  3  38  0.022001   1500  9  1105  5.15464  192  0
55  3  40  0.0218729  1500  9  1105  5.15464  192  0
55  3  42  0.0212335  1500  9  1105  5.15464  192  0
55  3  44  0.0212188  1500  9  1105  5.15464  192  0
55  3  46  0.0208249  1500  9  1105  5.15464  192  0
55  3  48  0.0220293  1500  9  1105  5.15464  192  0
55  3  50  0.0223813  1500  9  1105  5.15464  192  0
55  3  52  0.022066   1500  9  1105  5.15464  192  0
55  3  54  0.0223816  1500  9  1105  5.15464  192  0
55  3  56  0.0224532  1500  9  1105  5.15464  192  0
55  3  58  0.0220293  1500  9  1105  5.15464  192  0
55  3  60  0.0220293  1500  9  1105  5.15464  192  0
55  3  62  0.0220293  1500  9  1105  5.15464  192  0
55  3  64  0.0220293  1500  9  1105  5.15464  192  0
64  0   0  0.0223919  1500  9  1279  6.0241   104  1
64  0   2  0.0228602  1500  9  1279  6.0241   104  1
64  0   4  0.0222892  1500  9  1279  6.0241   104  1
64  0   6  0.0223673  1500  9  1279  6.0241   104  1
64  0   8  0.0225377  1500  9  1279  6.0241   104  1
64  0  10  0.0232033  1500  9  1279  6.0241   104  0
64  0  12  0.0222752  1500  9  1279  6.0241   104  1
64  0  14  0.0224894  1500  9  1279  6.0241   104  1
64  0  16  0.0229505  1500  9  1279  6.0241   104  1
64  0  18  0.0225607  1500  9  1279  6.0241   104  1
64  0  20  0.0228386  1500  9  1279  6.0241   104  1
64  0  22  0.0227281  1500  9  1279  6.0241   104  1
64  0  24  0.0231529  1500  9  1279  6.0241   104  1
64  0  26  0.0222086  1500  9  1279  6.0241   104  1
64  0  28  0.0232033  1500  9  1279  6.0241   104  0
64  0  30  0.0225845  1500  9  1279  6.0241   104  1
64  0  32  0.0239413  1500  9  1279  6.0241   104  1
64  0  34  0.0228641  1500  9  1279  6.0241   104  1
64  0  36  0.0236403  1500  9  1279  6.0241   104  1
64  0  38  0.0223744  1500  9  1279  6.0241   104  1
64  0  40  0.0220697  1500  9  1279  6.0241   104  1
64  0  42  0.0222508  1500  9  1279  6.0241   104  1
64  0  44  0.0232033  1500  9  1279  6.0241   104  0
64  0  46  0.0232033  1500  9  1279  6.0241   104  0
64  0  48  0.0232033  1500  9  1279  6.0241   104  0
64  0  50  0.0232033  1500  9  1279  6.0241   104  0
64  0  52  0.0223874  1500  9  1279  6.0241   104  1
64  0  54  0.0220816  1500  9  1279  6.0241   104  1
64  0  56  0.0232033  1500  9  1279  6.0241   104  0
64  0  58  0.0228458  1500  9  1279  6.0241   104  1
64  0  60  0.0223308  1500  9  1279  6.0241   104  1
64  0  62  0.0222941  1500  9  1279  6.0241   104  1
64  0  64  0.0232033  1500  9  1279  6.0241   104  0
64  1   0  0.0231078  1500  9  1365  5.10204   46  1
64  1   2  0.0225477  1500  9  1365  5.10204   46  1
64  1   4  0.0238861  1500  9  1365  5.10204   46  1
64  1   6  0.0233829  1500  9  1365  5.10204   46  1
64  1   8  0.0241482  1500  9  1365  5.10204   46  1
64  1  10  0.0226411  1500  9  1365  5.10204   46  1
64  1  12  0.0222523  1500  9  1365  5.10204   46  1
64  1  14  0.0244111  1500  9  1365  5.10204   46  1
64  1  16  0.0232033  1500  9  1365  5.10204   46  0
64  1  18  0.0222115  1500  9  1365  5.10204   46  1
64  1  20  0.0236728  1500  9  1365  5.10204   46  1
64  1  22  0.0232033  1500  9  1365  5.10204   46  0
64  1  24  0.0224153  1500  9  1365  5.10204   46  1
64  1  26  0.0231388  1500  9  1365  5.10204   46  1
64  1  28  0.0235622  1500  9  1365  5.10204   46  1
64  1  30  0.0228839  1500  9  1365  5.10204   46  1
64  1  32  0.0233406  1500  9  1365  5.10204   46  1
64  1  34  0.022636   1500  9  1365  5.10204   46  1
64  1  36  0.0235495  1500  9  1365  5.10204   46  1
64  1  38  0.0236761  1500  9  1365  5.10204   46  1
64  1  40  0.0233021  1500  9  1365  5.10204   46  1
64  1  42  0.0234438  1500  9  1365  5.10204   46  1
64  1  44  0.0235071  1500  9  1365  5.10204   46  1
64  1  46  0.0235895  1500  9  1365  5.10204   46  1
64  1  48  0.0230167  1500  9  1365  5.10204   46  1
64  1  50  0.0230413  1500  9  1365  5.10204   46  1
64  1  52  0.0238611  1500  9  1365  5.10204   46  1
64  1  54  0.0236091  1500  9  1365  5.10204   46  1
64  1  56  0.0236196  1500  9  1365  5.10204   46  1
64  1  58  0.0242611  1500  9  1365  5.10204   46  1
64  1  60  0.0212504  1500  9  1365  5.10204   46  1
64  1  62  0.0237788  1500  9  1365  5.10204   46  1
64  1  64  0.0232033  1500  9  1365  5.10204   46  0
64  2   0  0.0240363  1500  9  1321  5.15464   71  1
64  2   2  0.0234683  1500  9  1321  5.15464   71  1
64  2   4  0.0232033  1500  9  1321  5.15464   71  0
64  2   6  0.0236793  1500  9  1321  5.15464   71  1
64  2   8  0.0228041  1500  9  1321  5.15464   71  1
64  2  10  0.0235847  1500  9  1321  5.15464   71  1
64  2  12  0.0230912  1500  9  1321  5.15464   71  1
64  2  14  0.0234586  1500  9  1321  5.15464   71  1
64  2  16  0.0237439  1500  9  1321  5.15464   71  1
64  2  18  0.0231438  1500  9  1321  5.15464   71  1
64  2  20  0.0235622  1500  9  1321  5.15464   71  1
64  2  22  0.0233698  1500  9  1321  5.15464   71  1
64  2  24  0.023395   1500  9  1321  5.15464   71  1
64  2  26  0.0233434  1500  9  1321  5.15464   71  1
64  2  28  0.0227208  1500  9  1321  5.15464   71  1
64  2  30  0.0238739  1500  9  1321  5.15464   71  1
64  2  32  0.0229738  1500  9  1321  5.15464   71  1
64  2  34  0.0232725  1500  9  1321  5.15464   71  1
64  2  36  0.0229942  1500  9  1321  5.15464   71  1
64  2  38  0.0228867  1500  9  1321  5.15464   71  1
64  2  40  0.0231873  1500  9  1321  5.15464   71  1
64  2  42  0.0222906  1500  9  1321  5.15464   71  1
64  2  44  0.022757   1500  9  1321  5.15464   71  1
64  2  46  0.0223482  1500  9  1321  5.15464   71  1
64  2  48  0.02277    1500  9  1321  5.15464   71  1
64  2  50  0.0232114  1500  9  1321  5.15464   71  1
64  2  52  0.0242494  1500  9  1321  5.15464   71  1
64  2  54  0.0233613  1500  9  1321  5.15464   71  1
64  2  56  0.0234177  1500  9  1321  5.15464   71  1
64  2  58  0.0232718  1500  9  1321  5.15464   71  1
64  2  60  0.0232033  1500  9  1321  5.15464   71  0
64  2  62  0.0237384  1500  9  1321  5.15464   71  1
64  2  64  0.0232033  1500  9  1321  5.15464   71  0
64  3   0  0.0232033  1500  9  1105  5.15464  192  0
64  3   2  0.0232033  1500  9  1105  5.15464  192  0
64  3   4  0.0232033  1500  9  1105  5.15464  192  0
64  3   6  0.0232033  1500  9  1105  5.15464  192  0
64  3   8  0.0232033  1500  9  1105  5.15464  192  0
64  3  10  0.0232033  1500  9  1105  5.15464  192  0
64  3  12  0.0232033  1500  9  1105  5.15464  192  0
64  3  14  0.0232033  1500  9  1105  5.15464  192  0
64  3  16  0.0232033  1500  9  1105  5.15464  192  0
64  3  18  0.0254896  1500  9  1105  5.15464  192  0
64  3  20  0.0232033  1500  9  1105  5.15464  192  0
64  3  22  0.0232033  1500  9  1105  5.15464  192  0
64  3  24  0.0232033  1500  9  1105  5.15464  192  0
64  3  26  0.0232033  1500  9  1105  5.15464  192  0
64  3  28  0.0232033  1500  9  1105  5.15464  192  0
64  3  30  0.0239961  1500  9  1105  5.15464  192  0
64  3  32  0.0238173  1500  9  1105  5.15464  192  0
64  3  34  0.0246794  1500  9  1105  5.15464  192  0
64  3  36  0.0242777  1500  9  1105  5.15464  192  0
64  3  38  0.0243624  1500  9  1105  5.15464  192  0
64  3  40  0.0240897  1500  9  1105  5.15464  192  0
64  3  42  0.0245247  1500  9  1105  5.15464  192  0
64  3  44  0.0241122  1500  9  1105  5.15464  192  0
64  3  46  0.0243735  1500  9  1105  5.15464  192  0
64  3  48  0.0232033  1500  9  1105  5.15464  192  0
64  3  50  0.0232033  1500  9  1105  5.15464  192  0
64  3  52  0.0241314  1500  9  1105  5.15464  192  0
64  3  54  0.0239678  1500  9  1105  5.15464  192  0
64  3  56  0.0232033  1500  9  1105  5.15464  192  0
64  3  58  0.0232033  1500  9  1105  5.15464  192  0
64  3  60  0.0232033  1500  9  1105  5.15464  192  0
64  3  62  0.0232033  1500  9  1105  5.15464  192  0
64  3  64  0.0232033  1500  9  1105  5.15464  192  0