1 	 133.2	EE	0	0	78
2 	 142.1	EE	0	0	90
3 	 165.8	EE	0	0	89
4 	 174.7	EE	0	0	88
5 	 198.4	EE	0	0	77
6 	 207.3	EE	0	0	85
7 	 231.0	EE	0	0	84
8 	 239.9	EE	0	0	32
9 	 263.6	EE	0	0	69
10 	 272.5	EE	0	0	79
11 	 296.2	EE	0	0	76
12 	 305.1	EE	0	0	83
13 	 328.8	EE	0	0	70
14 	 337.7	EE	0	0	73
15 	 361.4	EE	0	0	86
16 	 370.3	EE	0	0	87
17 	 394.0	EE	0	0	82
18 	 402.9	EE	0	0	72
19 	 426.6	EE	0	0	67
20 	 435.5	EE	0	0	65
21 	 460.5	EE	0	0	35
22 	 471.8	EE	0	0	36
23 	 499.8	EE	0	0	44
24 	 512.7	EE	0	0	51
25 	 539.4	EE	0	0	142
26 	 549.5	EE	0	0	143
27 	 576.2	EE	0	0	145
28 	 586.4	EE	0	0	144
29 	 685.0	FH	1	0	98
29 	 685.0	FH	0	-1	105
29 	 685.0	FH	0	1	115
29 	 685.0	FH	1	-1	95
29 	 685.0	FH	-1	1	40
29 	 685.0	FH	0	0	96
29 	 685.0	FH	-1	0	101
30 	 754.4	FH	1	0	123
30 	 754.4	FH	0	-1	113
30 	 754.4	FH	0	1	122
30 	 754.4	FH	1	-1	34
30 	 754.4	FH	-1	1	104
30 	 754.4	FH	0	0	106
30 	 754.4	FH	-1	0	100
31 	 822.5	FH	1	0	97
31 	 822.5	FH	0	-1	37
31 	 822.5	FH	0	1	99
31 	 822.5	FH	1	-1	111
31 	 822.5	FH	-1	1	121
31 	 822.5	FH	0	0	94
31 	 822.5	FH	-1	0	114
32 	 891.6	FH	1	0	118
32 	 891.6	FH	0	-1	120
32 	 891.6	FH	0	1	124
32 	 891.6	FH	1	-1	107
32 	 891.6	FH	-1	1	108
32 	 891.6	FH	0	0	102
32 	 891.6	FH	-1	0	109
33 	 960.0	FH	1	0	136
33 	 960.0	FH	0	-1	138
33 	 960.0	FH	0	1	141
33 	 960.0	FH	1	-1	140
33 	 960.0	FH	-1	1	147
33 	 960.0	FH	0	0	139
33 	 960.0	FH	-1	0	137
34 	 1028.0	FH	1	0	134
34 	 1028.0	FH	0	-1	146
34 	 1028.0	FH	0	1	91
34 	 1028.0	FH	1	-1	132
34 	 1028.0	FH	-1	1	130
34 	 1028.0	FH	0	0	131
34 	 1028.0	FH	-1	0	133
35 	 1061.5	FH	1	0	127
35 	 1061.5	FH	0	-1	135
35 	 1061.5	FH	0	1	125
35 	 1061.5	FH	1	-1	126
35 	 1061.5	FH	0	0	119
35 	 1061.5	FH	-1	1	129
35 	 1061.5	FH	-1	0	128
36 	 1136.6	FH	1	0	53
36 	 1136.6	FH	0	-1	48
36 	 1136.6	FH	0	1	38
36 	 1136.6	FH	1	-1	46
36 	 1136.6	FH	-1	1	39
36 	 1136.6	FH	0	0	45
36 	 1136.6	FH	-1	0	42
37 	 1211.7	FH	1	0	55
37 	 1211.7	FH	0	-1	66
37 	 1211.7	FH	0	1	75
37 	 1211.7	FH	1	-1	63
37 	 1211.7	FH	0	0	59
37 	 1211.7	FH	-1	1	64
37 	 1211.7	FH	-1	0	71
38 	 1291.0	FH	0	0	62
39 	 1366.1	FH	0	0	54
40 	 1440.2	FH	0	0	43
