1 138.775
2 147.675
3 167.825
4 176.725
5 196.875
6 205.775
7 226.925
8 235.825
9 256.975
10 265.875
11 287.025
12 295.925
13 315.075
14 323.975
15 343.125
16 352.025
17 371.175
18 380.075
19 399.225
20 408.125
21 429.075
22 440.375
23 464.125
24 475.425
25 496.82
26 506.88
27 528.815
28 539.035
29 646.185
30 713.26
31 780.335
32 848.41
33 915.485
34 982.36
35 1151.53
36 1225.61
37 1299.69
38 1377.96
39 1452.03
40 1525.11